%YAML 1.1
%TAG !u! tag:unity3d.com,2011:
--- !u!29 &1
OcclusionCullingSettings:
  m_ObjectHideFlags: 0
  serializedVersion: 2
  m_OcclusionBakeSettings:
    smallestOccluder: 5
    smallestHole: 0.25
    backfaceThreshold: 100
  m_SceneGUID: 00000000000000000000000000000000
  m_OcclusionCullingData: {fileID: 0}
--- !u!104 &2
RenderSettings:
  m_ObjectHideFlags: 0
  serializedVersion: 9
  m_Fog: 0
  m_FogColor: {r: 0.5, g: 0.5, b: 0.5, a: 1}
  m_FogMode: 3
  m_FogDensity: 0.01
  m_LinearFogStart: 0
  m_LinearFogEnd: 300
  m_AmbientSkyColor: {r: 0.64595944, g: 0.6696334, b: 0.7169812, a: 1}
  m_AmbientEquatorColor: {r: 0.114, g: 0.125, b: 0.133, a: 1}
  m_AmbientGroundColor: {r: 0.047, g: 0.043, b: 0.035, a: 1}
  m_AmbientIntensity: 1
  m_AmbientMode: 3
  m_SubtractiveShadowColor: {r: 0.42, g: 0.478, b: 0.627, a: 1}
  m_SkyboxMaterial: {fileID: 10304, guid: 0000000000000000f000000000000000, type: 0}
  m_HaloStrength: 0.5
  m_FlareStrength: 1
  m_FlareFadeSpeed: 3
  m_HaloTexture: {fileID: 0}
  m_SpotCookie: {fileID: 10001, guid: 0000000000000000e000000000000000, type: 0}
  m_DefaultReflectionMode: 0
  m_DefaultReflectionResolution: 128
  m_ReflectionBounces: 1
  m_ReflectionIntensity: 1
  m_CustomReflection: {fileID: 0}
  m_Sun: {fileID: 929831157}
  m_IndirectSpecularColor: {r: 0.44923913, g: 0.49930865, b: 0.57571244, a: 1}
  m_UseRadianceAmbientProbe: 0
--- !u!157 &3
LightmapSettings:
  m_ObjectHideFlags: 0
  serializedVersion: 11
  m_GIWorkflowMode: 0
  m_GISettings:
    serializedVersion: 2
    m_BounceScale: 1
    m_IndirectOutputScale: 1
    m_AlbedoBoost: 1
    m_EnvironmentLightingMode: 0
    m_EnableBakedLightmaps: 1
    m_EnableRealtimeLightmaps: 1
  m_LightmapEditorSettings:
    serializedVersion: 12
    m_Resolution: 2
    m_BakeResolution: 40
    m_AtlasSize: 1024
    m_AO: 0
    m_AOMaxDistance: 1
    m_CompAOExponent: 1
    m_CompAOExponentDirect: 0
    m_ExtractAmbientOcclusion: 0
    m_Padding: 2
    m_LightmapParameters: {fileID: 0}
    m_LightmapsBakeMode: 1
    m_TextureCompression: 1
    m_FinalGather: 0
    m_FinalGatherFiltering: 1
    m_FinalGatherRayCount: 256
    m_ReflectionCompression: 2
    m_MixedBakeMode: 2
    m_BakeBackend: 1
    m_PVRSampling: 1
    m_PVRDirectSampleCount: 32
    m_PVRSampleCount: 500
    m_PVRBounces: 2
    m_PVREnvironmentSampleCount: 500
    m_PVREnvironmentReferencePointCount: 2048
    m_PVRFilteringMode: 2
    m_PVRDenoiserTypeDirect: 0
    m_PVRDenoiserTypeIndirect: 0
    m_PVRDenoiserTypeAO: 1
    m_PVRFilterTypeDirect: 0
    m_PVRFilterTypeIndirect: 0
    m_PVRFilterTypeAO: 0
    m_PVREnvironmentMIS: 1
    m_PVRCulling: 1
    m_PVRFilteringGaussRadiusDirect: 1
    m_PVRFilteringGaussRadiusIndirect: 5
    m_PVRFilteringGaussRadiusAO: 2
    m_PVRFilteringAtrousPositionSigmaDirect: 0.5
    m_PVRFilteringAtrousPositionSigmaIndirect: 2
    m_PVRFilteringAtrousPositionSigmaAO: 1
    m_ExportTrainingData: 0
    m_TrainingDataDestination: TrainingData
  m_LightingDataAsset: {fileID: 0}
  m_UseShadowmask: 1
--- !u!196 &4
NavMeshSettings:
  serializedVersion: 2
  m_ObjectHideFlags: 0
  m_BuildSettings:
    serializedVersion: 2
    agentTypeID: 0
    agentRadius: 0.5
    agentHeight: 2
    agentSlope: 45
    agentClimb: 0.4
    ledgeDropHeight: 0
    maxJumpAcrossDistance: 0
    minRegionArea: 2
    manualCellSize: 0
    cellSize: 0.16666667
    manualTileSize: 0
    tileSize: 256
    accuratePlacement: 0
    debug:
      m_Flags: 0
  m_NavMeshData: {fileID: 0}
--- !u!1001 &64949287
PrefabInstance:
  m_ObjectHideFlags: 0
  serializedVersion: 2
  m_Modification:
    m_TransformParent: {fileID: 0}
    m_Modifications:
    - target: {fileID: -927199367670048503, guid: a3f68423b318ebe4caa72f247fada513,
        type: 3}
      propertyPath: m_Name
      value: model_foodburger
      objectReference: {fileID: 0}
    - target: {fileID: -4216859302048453862, guid: a3f68423b318ebe4caa72f247fada513,
        type: 3}
      propertyPath: m_LocalPosition.x
      value: 0.17
      objectReference: {fileID: 0}
    - target: {fileID: -4216859302048453862, guid: a3f68423b318ebe4caa72f247fada513,
        type: 3}
      propertyPath: m_LocalPosition.y
      value: 0.67907
      objectReference: {fileID: 0}
    - target: {fileID: -4216859302048453862, guid: a3f68423b318ebe4caa72f247fada513,
        type: 3}
      propertyPath: m_LocalPosition.z
      value: -8.27
      objectReference: {fileID: 0}
    - target: {fileID: -4216859302048453862, guid: a3f68423b318ebe4caa72f247fada513,
        type: 3}
      propertyPath: m_LocalRotation.x
      value: -0.18480787
      objectReference: {fileID: 0}
    - target: {fileID: -4216859302048453862, guid: a3f68423b318ebe4caa72f247fada513,
        type: 3}
      propertyPath: m_LocalRotation.y
      value: -0.30703843
      objectReference: {fileID: 0}
    - target: {fileID: -4216859302048453862, guid: a3f68423b318ebe4caa72f247fada513,
        type: 3}
      propertyPath: m_LocalRotation.z
      value: -0.09112587
      objectReference: {fileID: 0}
    - target: {fileID: -4216859302048453862, guid: a3f68423b318ebe4caa72f247fada513,
        type: 3}
      propertyPath: m_LocalRotation.w
      value: 0.92912304
      objectReference: {fileID: 0}
    - target: {fileID: -4216859302048453862, guid: a3f68423b318ebe4caa72f247fada513,
        type: 3}
      propertyPath: m_RootOrder
      value: 4
      objectReference: {fileID: 0}
    - target: {fileID: -4216859302048453862, guid: a3f68423b318ebe4caa72f247fada513,
        type: 3}
      propertyPath: m_LocalEulerAnglesHint.x
      value: -23.539001
      objectReference: {fileID: 0}
    - target: {fileID: -4216859302048453862, guid: a3f68423b318ebe4caa72f247fada513,
        type: 3}
      propertyPath: m_LocalEulerAnglesHint.y
      value: -35.845
      objectReference: {fileID: 0}
    - target: {fileID: -4216859302048453862, guid: a3f68423b318ebe4caa72f247fada513,
        type: 3}
      propertyPath: m_LocalEulerAnglesHint.z
      value: -3.492
      objectReference: {fileID: 0}
    m_RemovedComponents: []
  m_SourcePrefab: {fileID: 100100000, guid: a3f68423b318ebe4caa72f247fada513, type: 3}
--- !u!1 &435531642
GameObject:
  m_ObjectHideFlags: 0
  m_CorrespondingSourceObject: {fileID: 0}
  m_PrefabInstance: {fileID: 0}
  m_PrefabAsset: {fileID: 0}
  serializedVersion: 6
  m_Component:
  - component: {fileID: 435531645}
  - component: {fileID: 435531644}
  - component: {fileID: 435531643}
  m_Layer: 0
  m_Name: Main Camera
  m_TagString: MainCamera
  m_Icon: {fileID: 0}
  m_NavMeshLayer: 0
  m_StaticEditorFlags: 0
  m_IsActive: 1
--- !u!81 &435531643
AudioListener:
  m_ObjectHideFlags: 0
  m_CorrespondingSourceObject: {fileID: 0}
  m_PrefabInstance: {fileID: 0}
  m_PrefabAsset: {fileID: 0}
  m_GameObject: {fileID: 435531642}
  m_Enabled: 1
--- !u!20 &435531644
Camera:
  m_ObjectHideFlags: 0
  m_CorrespondingSourceObject: {fileID: 0}
  m_PrefabInstance: {fileID: 0}
  m_PrefabAsset: {fileID: 0}
  m_GameObject: {fileID: 435531642}
  m_Enabled: 1
  serializedVersion: 2
  m_ClearFlags: 2
  m_BackGroundColor: {r: 1, g: 0, b: 0.90058327, a: 0}
  m_projectionMatrixMode: 1
  m_GateFitMode: 2
  m_FOVAxisMode: 0
  m_SensorSize: {x: 36, y: 24}
  m_LensShift: {x: 0, y: 0}
  m_FocalLength: 50
  m_NormalizedViewPortRect:
    serializedVersion: 2
    x: 0
    y: 0
    width: 1
    height: 1
  near clip plane: 0.3
  far clip plane: 1000
  field of view: 60
  orthographic: 0
  orthographic size: 5
  m_Depth: -1
  m_CullingMask:
    serializedVersion: 2
    m_Bits: 4294967295
  m_RenderingPath: -1
  m_TargetTexture: {fileID: 0}
  m_TargetDisplay: 0
  m_TargetEye: 3
  m_HDR: 1
  m_AllowMSAA: 1
  m_AllowDynamicResolution: 0
  m_ForceIntoRT: 0
  m_OcclusionCulling: 1
  m_StereoConvergence: 10
  m_StereoSeparation: 0.022
--- !u!4 &435531645
Transform:
  m_ObjectHideFlags: 0
  m_CorrespondingSourceObject: {fileID: 0}
  m_PrefabInstance: {fileID: 0}
  m_PrefabAsset: {fileID: 0}
  m_GameObject: {fileID: 435531642}
  m_LocalRotation: {x: 0, y: 0, z: 0, w: 1}
  m_LocalPosition: {x: 0, y: 0.901, z: -9.662}
  m_LocalScale: {x: 1, y: 1, z: 1}
  m_Children: []
  m_Father: {fileID: 0}
  m_RootOrder: 0
  m_LocalEulerAnglesHint: {x: 0, y: 0, z: 0}
--- !u!1001 &480174359
PrefabInstance:
  m_ObjectHideFlags: 0
  serializedVersion: 2
  m_Modification:
    m_TransformParent: {fileID: 0}
    m_Modifications:
    - target: {fileID: -927199367670048503, guid: 86502cbb866a46e4b8fac23c9867a22a,
        type: 3}
      propertyPath: m_Name
      value: model_foodhotdog
      objectReference: {fileID: 0}
    - target: {fileID: -4216859302048453862, guid: 86502cbb866a46e4b8fac23c9867a22a,
        type: 3}
      propertyPath: m_LocalPosition.x
      value: -0.147
      objectReference: {fileID: 0}
    - target: {fileID: -4216859302048453862, guid: 86502cbb866a46e4b8fac23c9867a22a,
        type: 3}
      propertyPath: m_LocalPosition.y
      value: 1.233
      objectReference: {fileID: 0}
    - target: {fileID: -4216859302048453862, guid: 86502cbb866a46e4b8fac23c9867a22a,
        type: 3}
      propertyPath: m_LocalPosition.z
      value: -7.916
      objectReference: {fileID: 0}
    - target: {fileID: -4216859302048453862, guid: 86502cbb866a46e4b8fac23c9867a22a,
        type: 3}
      propertyPath: m_LocalRotation.x
      value: -0.33557725
      objectReference: {fileID: 0}
    - target: {fileID: -4216859302048453862, guid: 86502cbb866a46e4b8fac23c9867a22a,
        type: 3}
      propertyPath: m_LocalRotation.y
      value: 0.1971665
      objectReference: {fileID: 0}
    - target: {fileID: -4216859302048453862, guid: 86502cbb866a46e4b8fac23c9867a22a,
        type: 3}
      propertyPath: m_LocalRotation.z
      value: -0.23263007
      objectReference: {fileID: 0}
    - target: {fileID: -4216859302048453862, guid: 86502cbb866a46e4b8fac23c9867a22a,
        type: 3}
      propertyPath: m_LocalRotation.w
      value: 0.8912893
      objectReference: {fileID: 0}
    - target: {fileID: -4216859302048453862, guid: 86502cbb866a46e4b8fac23c9867a22a,
        type: 3}
      propertyPath: m_RootOrder
      value: 6
      objectReference: {fileID: 0}
    - target: {fileID: -4216859302048453862, guid: 86502cbb866a46e4b8fac23c9867a22a,
        type: 3}
      propertyPath: m_LocalEulerAnglesHint.x
      value: -30.428001
      objectReference: {fileID: 0}
    - target: {fileID: -4216859302048453862, guid: 86502cbb866a46e4b8fac23c9867a22a,
        type: 3}
      propertyPath: m_LocalEulerAnglesHint.y
      value: 36.063004
      objectReference: {fileID: 0}
    - target: {fileID: -4216859302048453862, guid: 86502cbb866a46e4b8fac23c9867a22a,
        type: 3}
      propertyPath: m_LocalEulerAnglesHint.z
      value: -39.375
      objectReference: {fileID: 0}
    m_RemovedComponents: []
  m_SourcePrefab: {fileID: 100100000, guid: 86502cbb866a46e4b8fac23c9867a22a, type: 3}
--- !u!1001 &623334092
PrefabInstance:
  m_ObjectHideFlags: 0
  serializedVersion: 2
  m_Modification:
    m_TransformParent: {fileID: 0}
    m_Modifications:
    - target: {fileID: -927199367670048503, guid: 2315a3e503452aa4d873df22b526b388,
        type: 3}
      propertyPath: m_Name
      value: model_robber01
      objectReference: {fileID: 0}
    - target: {fileID: -927199367670048503, guid: 2315a3e503452aa4d873df22b526b388,
        type: 3}
      propertyPath: m_IsActive
      value: 0
      objectReference: {fileID: 0}
    - target: {fileID: -6057140222963153312, guid: 2315a3e503452aa4d873df22b526b388,
        type: 3}
      propertyPath: m_ApplyRootMotion
      value: 0
      objectReference: {fileID: 0}
    - target: {fileID: -6057140222963153312, guid: 2315a3e503452aa4d873df22b526b388,
        type: 3}
      propertyPath: m_Controller
      value: 
      objectReference: {fileID: 9100000, guid: 2b1125b718421f34db4b99ad91757dad, type: 2}
    - target: {fileID: -4216859302048453862, guid: 2315a3e503452aa4d873df22b526b388,
        type: 3}
      propertyPath: m_LocalPosition.x
      value: -0.05
      objectReference: {fileID: 0}
    - target: {fileID: -4216859302048453862, guid: 2315a3e503452aa4d873df22b526b388,
        type: 3}
      propertyPath: m_LocalPosition.y
      value: 0
      objectReference: {fileID: 0}
    - target: {fileID: -4216859302048453862, guid: 2315a3e503452aa4d873df22b526b388,
        type: 3}
      propertyPath: m_LocalPosition.z
      value: -7.51
      objectReference: {fileID: 0}
    - target: {fileID: -4216859302048453862, guid: 2315a3e503452aa4d873df22b526b388,
        type: 3}
      propertyPath: m_LocalRotation.x
      value: 0.002566444
      objectReference: {fileID: 0}
    - target: {fileID: -4216859302048453862, guid: 2315a3e503452aa4d873df22b526b388,
        type: 3}
      propertyPath: m_LocalRotation.y
      value: -0.9581453
      objectReference: {fileID: 0}
    - target: {fileID: -4216859302048453862, guid: 2315a3e503452aa4d873df22b526b388,
        type: 3}
      propertyPath: m_LocalRotation.z
      value: -0.08629465
      objectReference: {fileID: 0}
    - target: {fileID: -4216859302048453862, guid: 2315a3e503452aa4d873df22b526b388,
        type: 3}
      propertyPath: m_LocalRotation.w
      value: 0.27295467
      objectReference: {fileID: 0}
    - target: {fileID: -4216859302048453862, guid: 2315a3e503452aa4d873df22b526b388,
        type: 3}
      propertyPath: m_RootOrder
      value: 3
      objectReference: {fileID: 0}
    - target: {fileID: -4216859302048453862, guid: 2315a3e503452aa4d873df22b526b388,
        type: 3}
      propertyPath: m_LocalEulerAnglesHint.x
      value: -9.437
      objectReference: {fileID: 0}
    - target: {fileID: -4216859302048453862, guid: 2315a3e503452aa4d873df22b526b388,
        type: 3}
      propertyPath: m_LocalEulerAnglesHint.y
      value: -147.94801
      objectReference: {fileID: 0}
    - target: {fileID: -4216859302048453862, guid: 2315a3e503452aa4d873df22b526b388,
        type: 3}
      propertyPath: m_LocalEulerAnglesHint.z
      value: -3.0230002
      objectReference: {fileID: 0}
    - target: {fileID: 2948753287810117927, guid: 2315a3e503452aa4d873df22b526b388,
        type: 3}
      propertyPath: m_LocalRotation.x
      value: -0
      objectReference: {fileID: 0}
    - target: {fileID: 2948753287810117927, guid: 2315a3e503452aa4d873df22b526b388,
        type: 3}
      propertyPath: m_LocalRotation.z
      value: -4.6566123e-10
      objectReference: {fileID: 0}
    - target: {fileID: 2948753287810117927, guid: 2315a3e503452aa4d873df22b526b388,
        type: 3}
      propertyPath: m_LocalPosition.x
      value: 0
      objectReference: {fileID: 0}
    m_RemovedComponents: []
  m_SourcePrefab: {fileID: 100100000, guid: 2315a3e503452aa4d873df22b526b388, type: 3}
--- !u!1 &929831156
GameObject:
  m_ObjectHideFlags: 0
  m_CorrespondingSourceObject: {fileID: 0}
  m_PrefabInstance: {fileID: 0}
  m_PrefabAsset: {fileID: 0}
  serializedVersion: 6
  m_Component:
  - component: {fileID: 929831158}
  - component: {fileID: 929831157}
  m_Layer: 0
  m_Name: Directional Light
  m_TagString: Untagged
  m_Icon: {fileID: 0}
  m_NavMeshLayer: 0
  m_StaticEditorFlags: 0
  m_IsActive: 1
--- !u!108 &929831157
Light:
  m_ObjectHideFlags: 0
  m_CorrespondingSourceObject: {fileID: 0}
  m_PrefabInstance: {fileID: 0}
  m_PrefabAsset: {fileID: 0}
  m_GameObject: {fileID: 929831156}
  m_Enabled: 1
  serializedVersion: 9
  m_Type: 1
  m_Color: {r: 0.3443396, g: 1, b: 0.8742474, a: 1}
  m_Intensity: 0.4
  m_Range: 10
  m_SpotAngle: 30
  m_InnerSpotAngle: 21.802082
  m_CookieSize: 10
  m_Shadows:
    m_Type: 1
    m_Resolution: 2
    m_CustomResolution: -1
    m_Strength: 1
    m_Bias: 0.05
    m_NormalBias: 0.4
    m_NearPlane: 0.2
    m_CullingMatrixOverride:
      e00: 1
      e01: 0
      e02: 0
      e03: 0
      e10: 0
      e11: 1
      e12: 0
      e13: 0
      e20: 0
      e21: 0
      e22: 1
      e23: 0
      e30: 0
      e31: 0
      e32: 0
      e33: 1
    m_UseCullingMatrixOverride: 0
  m_Cookie: {fileID: 0}
  m_DrawHalo: 0
  m_Flare: {fileID: 0}
  m_RenderMode: 0
  m_CullingMask:
    serializedVersion: 2
    m_Bits: 4294967295
  m_RenderingLayerMask: 1
  m_Lightmapping: 1
  m_LightShadowCasterMode: 0
  m_AreaSize: {x: 1, y: 1}
  m_BounceIntensity: 1
  m_ColorTemperature: 6570
  m_UseColorTemperature: 0
  m_BoundingSphereOverride: {x: 0, y: 0, z: 0, w: -0.0000000037721932}
  m_UseBoundingSphereOverride: 0
  m_ShadowRadius: 0
  m_ShadowAngle: 0
--- !u!4 &929831158
Transform:
  m_ObjectHideFlags: 0
  m_CorrespondingSourceObject: {fileID: 0}
  m_PrefabInstance: {fileID: 0}
  m_PrefabAsset: {fileID: 0}
  m_GameObject: {fileID: 929831156}
  m_LocalRotation: {x: 0.31665158, y: -0.21770103, z: 0.22667374, w: 0.89496213}
  m_LocalPosition: {x: 0, y: 3, z: 0}
  m_LocalScale: {x: 1, y: 1, z: 1}
  m_Children: []
  m_Father: {fileID: 0}
  m_RootOrder: 1
  m_LocalEulerAnglesHint: {x: 41.719, y: -19.252, z: 21.03}
--- !u!1001 &1156219603
PrefabInstance:
  m_ObjectHideFlags: 0
  serializedVersion: 2
  m_Modification:
    m_TransformParent: {fileID: 1604287234}
    m_Modifications:
    - target: {fileID: -927199367670048503, guid: 2e9885b64eab13c4daad4577cc644641,
        type: 3}
      propertyPath: m_Name
      value: model_baton01
      objectReference: {fileID: 0}
    - target: {fileID: -4216859302048453862, guid: 2e9885b64eab13c4daad4577cc644641,
        type: 3}
      propertyPath: m_LocalPosition.x
      value: 0.067
      objectReference: {fileID: 0}
    - target: {fileID: -4216859302048453862, guid: 2e9885b64eab13c4daad4577cc644641,
        type: 3}
      propertyPath: m_LocalPosition.y
      value: 0.083
      objectReference: {fileID: 0}
    - target: {fileID: -4216859302048453862, guid: 2e9885b64eab13c4daad4577cc644641,
        type: 3}
      propertyPath: m_LocalPosition.z
      value: 0.17
      objectReference: {fileID: 0}
    - target: {fileID: -4216859302048453862, guid: 2e9885b64eab13c4daad4577cc644641,
        type: 3}
      propertyPath: m_LocalRotation.x
      value: -0.5361265
      objectReference: {fileID: 0}
    - target: {fileID: -4216859302048453862, guid: 2e9885b64eab13c4daad4577cc644641,
        type: 3}
      propertyPath: m_LocalRotation.y
      value: -0.0920202
      objectReference: {fileID: 0}
    - target: {fileID: -4216859302048453862, guid: 2e9885b64eab13c4daad4577cc644641,
        type: 3}
      propertyPath: m_LocalRotation.z
      value: -0.6269067
      objectReference: {fileID: 0}
    - target: {fileID: -4216859302048453862, guid: 2e9885b64eab13c4daad4577cc644641,
        type: 3}
      propertyPath: m_LocalRotation.w
      value: 0.5577533
      objectReference: {fileID: 0}
    - target: {fileID: -4216859302048453862, guid: 2e9885b64eab13c4daad4577cc644641,
        type: 3}
      propertyPath: m_RootOrder
      value: 2
      objectReference: {fileID: 0}
    - target: {fileID: -4216859302048453862, guid: 2e9885b64eab13c4daad4577cc644641,
        type: 3}
      propertyPath: m_LocalEulerAnglesHint.x
      value: -45.515003
      objectReference: {fileID: 0}
    - target: {fileID: -4216859302048453862, guid: 2e9885b64eab13c4daad4577cc644641,
        type: 3}
      propertyPath: m_LocalEulerAnglesHint.y
      value: 54.371002
      objectReference: {fileID: 0}
    - target: {fileID: -4216859302048453862, guid: 2e9885b64eab13c4daad4577cc644641,
        type: 3}
      propertyPath: m_LocalEulerAnglesHint.z
      value: -120.99901
      objectReference: {fileID: 0}
    m_RemovedComponents: []
  m_SourcePrefab: {fileID: 100100000, guid: 2e9885b64eab13c4daad4577cc644641, type: 3}
--- !u!1001 &1431351815
PrefabInstance:
  m_ObjectHideFlags: 0
  serializedVersion: 2
  m_Modification:
    m_TransformParent: {fileID: 0}
    m_Modifications:
    - target: {fileID: -927199367670048503, guid: 07da7042afc9b844bb4d50f173d8b450,
        type: 3}
      propertyPath: m_Name
      value: model_fooddoughnut
      objectReference: {fileID: 0}
    - target: {fileID: -4216859302048453862, guid: 07da7042afc9b844bb4d50f173d8b450,
        type: 3}
      propertyPath: m_LocalPosition.x
      value: -0.441
      objectReference: {fileID: 0}
    - target: {fileID: -4216859302048453862, guid: 07da7042afc9b844bb4d50f173d8b450,
        type: 3}
      propertyPath: m_LocalPosition.y
      value: 0.67907
      objectReference: {fileID: 0}
    - target: {fileID: -4216859302048453862, guid: 07da7042afc9b844bb4d50f173d8b450,
        type: 3}
      propertyPath: m_LocalPosition.z
      value: -8.108
      objectReference: {fileID: 0}
    - target: {fileID: -4216859302048453862, guid: 07da7042afc9b844bb4d50f173d8b450,
        type: 3}
      propertyPath: m_LocalRotation.x
      value: -0.38038775
      objectReference: {fileID: 0}
    - target: {fileID: -4216859302048453862, guid: 07da7042afc9b844bb4d50f173d8b450,
        type: 3}
      propertyPath: m_LocalRotation.y
      value: 0.049847215
      objectReference: {fileID: 0}
    - target: {fileID: -4216859302048453862, guid: 07da7042afc9b844bb4d50f173d8b450,
        type: 3}
      propertyPath: m_LocalRotation.z
      value: 0.031315036
      objectReference: {fileID: 0}
    - target: {fileID: -4216859302048453862, guid: 07da7042afc9b844bb4d50f173d8b450,
        type: 3}
      propertyPath: m_LocalRotation.w
      value: 0.92295164
      objectReference: {fileID: 0}
    - target: {fileID: -4216859302048453862, guid: 07da7042afc9b844bb4d50f173d8b450,
        type: 3}
      propertyPath: m_RootOrder
      value: 5
      objectReference: {fileID: 0}
    - target: {fileID: -4216859302048453862, guid: 07da7042afc9b844bb4d50f173d8b450,
        type: 3}
      propertyPath: m_LocalEulerAnglesHint.x
      value: -44.852
      objectReference: {fileID: 0}
    - target: {fileID: -4216859302048453862, guid: 07da7042afc9b844bb4d50f173d8b450,
        type: 3}
      propertyPath: m_LocalEulerAnglesHint.y
      value: 5.5200005
      objectReference: {fileID: 0}
    - target: {fileID: -4216859302048453862, guid: 07da7042afc9b844bb4d50f173d8b450,
        type: 3}
      propertyPath: m_LocalEulerAnglesHint.z
      value: 1.6070001
      objectReference: {fileID: 0}
    m_RemovedComponents: []
  m_SourcePrefab: {fileID: 100100000, guid: 07da7042afc9b844bb4d50f173d8b450, type: 3}
--- !u!1001 &1604287233
PrefabInstance:
  m_ObjectHideFlags: 0
  serializedVersion: 2
  m_Modification:
    m_TransformParent: {fileID: 0}
    m_Modifications:
    - target: {fileID: -927199367670048503, guid: 49dd0faf7e4e5594a91356e642babd19,
        type: 3}
      propertyPath: m_Name
      value: model_police01
      objectReference: {fileID: 0}
    - target: {fileID: -927199367670048503, guid: 49dd0faf7e4e5594a91356e642babd19,
        type: 3}
      propertyPath: m_IsActive
      value: 0
      objectReference: {fileID: 0}
    - target: {fileID: -6057140222963153312, guid: 49dd0faf7e4e5594a91356e642babd19,
        type: 3}
      propertyPath: m_Controller
      value: 
      objectReference: {fileID: 9100000, guid: 17b590775a353084fbd3d86efa3cc284, type: 2}
    - target: {fileID: -6057140222963153312, guid: 49dd0faf7e4e5594a91356e642babd19,
        type: 3}
      propertyPath: m_ApplyRootMotion
      value: 0
      objectReference: {fileID: 0}
    - target: {fileID: -4216859302048453862, guid: 49dd0faf7e4e5594a91356e642babd19,
        type: 3}
      propertyPath: m_LocalPosition.x
      value: 0
      objectReference: {fileID: 0}
    - target: {fileID: -4216859302048453862, guid: 49dd0faf7e4e5594a91356e642babd19,
        type: 3}
      propertyPath: m_LocalPosition.y
      value: 0
      objectReference: {fileID: 0}
    - target: {fileID: -4216859302048453862, guid: 49dd0faf7e4e5594a91356e642babd19,
        type: 3}
      propertyPath: m_LocalPosition.z
      value: -7.16
      objectReference: {fileID: 0}
    - target: {fileID: -4216859302048453862, guid: 49dd0faf7e4e5594a91356e642babd19,
        type: 3}
      propertyPath: m_LocalRotation.x
      value: -0
      objectReference: {fileID: 0}
    - target: {fileID: -4216859302048453862, guid: 49dd0faf7e4e5594a91356e642babd19,
        type: 3}
      propertyPath: m_LocalRotation.y
      value: -0.98313487
      objectReference: {fileID: 0}
    - target: {fileID: -4216859302048453862, guid: 49dd0faf7e4e5594a91356e642babd19,
        type: 3}
      propertyPath: m_LocalRotation.z
      value: -0
      objectReference: {fileID: 0}
    - target: {fileID: -4216859302048453862, guid: 49dd0faf7e4e5594a91356e642babd19,
        type: 3}
      propertyPath: m_LocalRotation.w
      value: 0.18288237
      objectReference: {fileID: 0}
    - target: {fileID: -4216859302048453862, guid: 49dd0faf7e4e5594a91356e642babd19,
        type: 3}
      propertyPath: m_RootOrder
      value: 2
      objectReference: {fileID: 0}
    - target: {fileID: -4216859302048453862, guid: 49dd0faf7e4e5594a91356e642babd19,
        type: 3}
      propertyPath: m_LocalEulerAnglesHint.x
      value: 0
      objectReference: {fileID: 0}
    - target: {fileID: -4216859302048453862, guid: 49dd0faf7e4e5594a91356e642babd19,
        type: 3}
      propertyPath: m_LocalEulerAnglesHint.y
      value: -158.925
      objectReference: {fileID: 0}
    - target: {fileID: -4216859302048453862, guid: 49dd0faf7e4e5594a91356e642babd19,
        type: 3}
      propertyPath: m_LocalEulerAnglesHint.z
      value: 0
      objectReference: {fileID: 0}
    m_RemovedComponents: []
  m_SourcePrefab: {fileID: 100100000, guid: 49dd0faf7e4e5594a91356e642babd19, type: 3}
--- !u!4 &1604287234 stripped
Transform:
  m_CorrespondingSourceObject: {fileID: -8549573350728841044, guid: 49dd0faf7e4e5594a91356e642babd19,
    type: 3}
  m_PrefabInstance: {fileID: 1604287233}
  m_PrefabAsset: {fileID: 0}
